Chapter 18 Dplyr Relational Databases | Community contributions for EDAV Fall 2019
…
18.4 4. Data description for example

18.4.1 4.1 BIS Library

We will explore relational data from the recent data package BIS that provides an interface to data provided by the Bank for International Settlements https://www.bis.org, allowing for programmatic retrieval of a large quantity of (central) banking data.

18.4.2 4.2 Selected data sets

First, we are going to upload the tables that are available in the BIS package.

datasets=get_datasets()
datasets

## # A tibble: 22 x 2
##    name                             url                                    
##    <chr>                            <chr>                                  
##  1 Locational banking statistics    https://www.bis.org/statistics/full_bi…
##  2 Consolidated banking statistics  https://www.bis.org/statistics/full_bi…
##  3 Debt securities statistics       https://www.bis.org/statistics/full_bi…
##  4 Credit to the non-financial sec… https://www.bis.org/statistics/full_bi…
##  5 Credit-to-GDP gaps               https://www.bis.org/statistics/full_we…
##  6 Debt service ratios for the pri… https://www.bis.org/statistics/full_bi…
##  7 Global liquidity indicators      https://www.bis.org/statistics/full_bi…
##  8 Exchange-traded derivatives sta… https://www.bis.org/statistics/full_bi…
##  9 OTC derivatives outstanding      https://www.bis.org/statistics/full_bi…
## 10 US dollar exchange rates (month… https://www.bis.org/statistics/full_we…
## # … with 12 more rows
…
